jamendo
dnn,0.9588045839262976,0.9611236880748474,0.9543286734263836,0.9573321824940131
cnn,0.9464459591041869,0.9410242092452867,0.9468986583945205,0.9437378258819908
gru,0.9436536815068494,0.9352375726059184,0.9472949840599583,0.9404198854034334
lrcn,0.9703847218378079,0.9679916308576924,0.9697947281262544,0.9688738939045275
rwc
dnn,0.9087624727606377,0.9115327718448105,0.9089800624433391,0.908638407052441
cnn,0.9029246473219406,0.9022559424597814,0.9023536329920889,0.9023042614707858
gru,0.9138563890800643,0.9129283901177294,0.9136127644423728,0.9132481268473414
lrcn,0.9315673289183223,0.9306279504327302,0.9311940834986927,0.9309005246550992
