,accuracy,precision ,recall ,fmeasure
lstm,0.896822665749025,0.8968917806834111,0.8958899816323282,0.8963172142002029
cnn,0.9062736552356921,0.9045364473192021,0.906749875075983,0.9054487396733073
gru,0.911069052534985,0.909334810882411,0.9116404082631395,0.9102816941698468
lrcn,0.9235651214128036,0.9222093823760819,0.9234098260613617,0.9227643768299594