  ,accuracy          ,precision         ,recall            ,fmeasure
5 ,0.9195546028343456,0.9198229161968576,0.9186365201899629,0.9191396885690941
6 ,0.9221773029165463,0.9214124504601033,0.9218108059358996,0.9216045473602015
7 ,0.9199183881662841,0.919188500621201 ,0.9194379047398276,0.919310487835171
8 ,0.9114905308605632,0.9116391033093485,0.9104910438666556,0.9109863180329525
9 ,0.9197503343736068,0.9194586157590403,0.9189605889458592,0.9191976806408108
10,0.91925           ,0.9185155617647385,0.9186674854469865,0.9185905837281985
11,0.9177320733740967,0.9157741914221366,0.9184365294125801,0.9168766393813358
12,0.9157717091132249,0.915526041092795 ,0.9148559787758196,0.9151698899576022
13,0.9240187856424019,0.9231355797594736,0.9235890131994028,0.9233546021063576
14,0.9181851311953353,0.9176076944334596,0.9175280712458388,0.9175676027838269
15,0.9250493096646942,0.9246069717929641,0.9242361237360883,0.9244162443637807
16,0.9235506476959014,0.9227157554304922,0.9230535728263858,0.9228803982902344
17,0.9227957971676565,0.9219124170194708,0.9222822074721808,0.9220923765341036
18,0.9276171969880981,0.9275779325120515,0.9266352369768212,0.9270688089101096
19,0.9353998437092993,0.9354374396956199,0.9345157053408808,0.9349392821666751
20,0.9249448123620309,0.9242095298977184,0.9242997687106449,0.9242543604182067
21,0.9359461830944721,0.9343801623213388,0.9362783451666514,0.9352280686760103
22,0.9335403726708075,0.9338069950757668,0.9326869618279205,0.933175300113773
23,0.9347258485639687,0.9338563170933113,0.934310591865976 ,0.9340769045406039
24,0.9334253190755433,0.9328583193834837,0.9330127559583753,0.9329345174588026
25,0.9359301055697125,0.9361388333849787,0.935008861761844 ,0.9355127162683295
26,0.9255036107943747,0.9256056793610835,0.9245823261497574,0.9250395969829541
27,0.9258964143426295,0.9250542496404681,0.9255464550871817,0.9252907334009278
28,0.9273789649415692,0.9257323145098105,0.9278771252455462,0.9266552806635691
29,0.9447826086956522,0.9444307172316178,0.9442183077709962,0.9443228671378923
