,accuracy,precision ,recall ,fmeasure
lstm,0.9365368150684932,0.9422537257801511,0.9304378954502966,0.9347482398927603
cnn,0.9415132092834138,0.9374484077923417,0.9401757049066222,0.9387596806720082
gru,0.9548801369863014,0.9506433285059721,0.954951567500999,0.9526768279863889
lrcn,0.9709382784389704,0.9697020397614621,0.969349908745936,0.96952520728426
