# jamendo,jamendo,jamendo,jamendo,jamendo,jamendo,jamendo,jamendo,jamendo,jamendo,
0.05,0.9240096495683090,0.9175316209791820,0.9191339138657790,0.9190738704548410,0.9176274695136510,0.9206505597530680,0.9251092306997540,0.9235070123347140,0.9270928502440680
0.10,0.9228814554817850,0.9245792313031370,0.9213720357854440,0.9260513902711340,0.9258080901597910,0.9215344941524090,0.9216982418522850,0.9238366103102490,0.9190451401055170
0.20,0.9196038875791300,0.9206673304484300,0.9148708769931920,0.9190996975040490,0.9199356257895100,0.917897299358121,0.920848540999869,0.9257792067792160,0.9201660981554990
0.30,0.9293114726739270,0.9208999649366140,0.9265553537740010,0.9255604293740670,0.9213093631120380,0.9275305388007500,0.9254297653260930,0.9324133993745120,0.9251267475802740
0.50,0.9196125452543010,0.9298012595840620,0.9310533860041680,0.9293165478677650,0.9308998711674790,0.9257100350483560,0.9247823661103320,0.9293022554024990,0.9146627672406170
0.80,0.9318959245664960,0.9257728583996560,0.9240556770610670,0.9341785551259080,0.9336166766001410,0.9312677201439660,0.9253107086319970,0.9318677769139180,0.9334793767671260
1.00,0.9265941971163580,0.9282625108182590,0.9241455477617840,0.9204298671435870,0.9302485430722180,0.927149366119908,0.9294786067578250,0.9287099862759590,0.9284428753000120
2.00,0.9181521452270210,0.9259677161278180,0.9296163682864450,0.9269505502192480,0.9187338297675260,0.926056244018644,0.926333892455936,0.9272636815920400,0.928538212015988
