# rwc,rwc,rwc,rwc,rwc,rwc,rwc,rwc,rwc,rwc,
plp,0.9218876854946030,0.9213263182473740,0.9222651458224950,0.9196125024474470,0.9208141226566980,0.9262708035267820,0.9245991620848850,0.9303855416577680,0.9187134326083460,
chroma,0.8136360053793320,0.8043159247957720,0.8203459117081450,0.8052765566144480,0.8173344328757690,0.825335331742367,0.8238849622227640,0.8056161232081380,0.8175004302489540,
lpc,0.9410933929448900,0.9342503858964990,0.9411550233339680,0.9355611450183130,0.9345386731340280,0.9365327524724650,0.9347515408964680,0.937643464903954,0.9430636788099,
mfcc,0.9526078330149950,0.9459136960237970,0.9537818780957060,0.9541598491111960,0.9536141009024900,0.9542818681792970,0.9573138931117330,0.9592942492348990,0.9574091506922210,
MFCC_delta,0.9554581922740830,0.9586977480778870,0.9604530250496580,0.9572815510553720,0.9617598383527380,0.9515547272020280,0.9595129300854800,0.96105443315104,0.9596267836782250,
MFCC_delta_delta,0.9564152673229110,0.9588121295029640,0.9599222872061660,0.956207062491446,0.9559873591966720,0.9605524620591770,0.9640420414327320,0.9578089331813370,0.9555379408943660,
spec_all,0.9684267575286870,0.9600954778540350,0.965964912026446,0.9701647341784840,0.9701792702339610,0.9684112786278480,0.9681096943704620,0.968495227248964,0.9701501073272320,
