../fin_data_svd/Jamendo/_1.00_vocal.h5,0.9346026490066225,0.9345102281667979,0.9336871747442816,0.934072427389808
../fin_data_svd/Jamendo/_1.00_mix.h5,0.7219917012448133,0.7206579846332704,0.7197478110175961,0.7200895941352083
../fin_data_svd/RWC/_1.00_vocal.h5,0.9615278162192085,0.9581984871512,0.9609383791544596,0.9595234374326257
../fin_data_svd/RWC/_1.00_mix.h5,0.9042198778456413,0.9057826443116326,0.8972302570643345,0.9007553023904932
../fin_data_svd/Jamendo/_1.00_vocal.h5,0.9224613686534217,0.9216242132179386,0.9218504527193141,0.9217355316324118
../fin_data_svd/Jamendo/_1.00_mix.h5,0.7100968188105118,0.7061389393027769,0.7073976831529207,0.7066295713972428
../fin_data_svd/RWC/_1.00_vocal.h5,0.9656794907279269,0.9616122331684964,0.9662768724247767,0.9638204223077301
../fin_data_svd/RWC/_1.00_mix.h5,0.889505830094392,0.8871794623223319,0.8828797737043106,0.8848538356084724
